A
B
C
D
E
F
G
H
I
J
K
L
M
N
O
P
Q
R
S
T

A
B

A

A
B

A

A

A
B
C
D
E
F
G
H
I
J
K
L
M
N
O
P
Q
R
S
T

ThisIsAnotherTieTestWithUniqueNames
ThisTimeInsteadOfJustLetters

Jeff

John Doe

Matt Sharp

R

A

A
B

A

D

A

F

I

L
