candidate 2

candidate 1

candidate 2

candidate 3

candidate 2

candidate 8

candidate 5
candidate 10

candidate 1

candidate 9

candidate 2

candidate 4

candidate 1

candidate 2

candidate 1

candidate 7

candidate 4

candidate 14

candidate 12

candidate 1

candidate 1
